' ------------------------------------------------------------------------------
' NOTE: Templates are placed in game with all possible rotations and flipping,
' it does not matter which orientation they are designed with.
'
' Room types (affects monster spawning, traps, chance of being dark, etc):
'   plain
'   human
'   ritual
'   jail
'   spider
'   snake_pit
'   crypt
'   monster
'   damp
'   muddy
'   cave
'   chasm
'   forest
'
' Symbols:
'   #   Wall
'   ?   Optional walls (generated 50% of the time)
'   .   Floor
'   -   Altar
'   ~   Water
'   0   Brazier
'   P   Statue
'   +   Wooden door
'   x   Barred gate
'   =   Grate
'   "   Vines
'   *   Chains
'
' ------------------------------------------------------------------------------

$ plain
.......
.##.##.
..###..
...#...
.......
...#...
..###..
.##.##.
.......

$ plain
.........
.#.#.#.#.
.###.###.
.........
.#.#.#.#.
.........
.###.###.
.#.#.#.#.
.........

$ plain
..........
..........
#####.....
....#####.
..........
..........

$ plain
.....
.....
##...
.##..
..+..
..##.
...##
.....
.....

$ plain
.......
.......
##.....
.##....
..##...
...+...
...##..
....##.
.....##
.......
.......

$ plain
.............
.............
##.........##
.##.......##.
..##.....##..
...+.....+...
...##...##...
....##.##....
.....###.....
......#......
......#......

$ plain
.............
.............
#.####.####.#
.............
.............
####.....####
.............
.............
#.####.####.#
.............
.............

$ plain
........
........
######..
........
........
..######
........
........
######..
........
........

$ plain
###...###
#.......#
#.#...#.#
.........
.........
.........
#.#...#.#
#.......#
###...###

$ plain
....#####....
....#####....
....#####....
.....###.....
......#......
.............
......#......
.....###.....
....#####....
....#####....
....#####....

$ plain
###.###.
.#...#..
........
.#...#..
###.###.

$ plain
...........
...........
...........
.....#.....
....###....
...#####...
....###....
.....#.....
...........
...........
...........

$ plain
.....#.....
.....#.....
.....#.....
.....#.....
.....#.....
.....+.....
.....#.....
.....#.....
.....#.....
.....#.....
.....#.....

$ plain
.........
.........
.........
.#.#.#.#.
.#######.
.#######.
.#.#.#.#.
.........
.........
.........

$ plain
####..####
##......##
#...??...#
#..????..#
..??????..
..??????..
#..????..#
#...??...#
##......##
####..####

$ plain
..........
..........
....??....
...????...
..??????..
..??????..
#..????..#
#...??...#
##......##
####..####

$ plain
#####..#####
###......###
##........##
#....??....#
#...????...#
...??????...
...??????...
#...????...#
#....??....#
##........##
###......###
#####..#####

$ plain
............
............
............
.....??.....
....????....
...??????...
...??????...
#...????...#
#....??....#
##........##
###......###
#####..#####

$ plain
##??........
##??........
........??##
........??##
##??........
##??........
........??##
........??##

$ plain
..###..
...#...
#.....#
##...##
#.....#
...#...
..###..

$ jail
.....#.....
.....=.....
.....#.....
.....=.....
.....#.....
.....x.....
.....#.....
.....=.....
.....#.....
.....=.....
.....#.....

$ jail
..#...#..
..=...=..
..#...#..
..=...=..
..#...#..
..x...x..
..#...#..
..=...=..
..#...#..
..=...=..
..#...#..

$ jail
...#...#...#...
...#...#...#...
...#...#...#...
=x=#=x=#=x=#=x=
...............
...............
=x=#=x=#=x=#=x=
...#...#...#...
...#...#...#...
...#...#...#...

$ jail
...#...#...#...
=x=#=x=#=x=#=x=
...............
...............
=x=#=x=#=x=#=x=
...#...#...#...

$ jail
...#...#...#...
=x=#=x=#=x=#=x=
...............
=x=#=x=#=x=#=x=
...#...#...#...

$ jail
...#...#...
...#...#...
=x=#=x=#=x=
...........
...........
=x=#=x=#=x=
...#...#...
...#...#...

$ jail
...#...#...
=x=#=x=#=x=
...........
...........
=x=#=x=#=x=
...#...#...

$ jail
...#...#...
=x=#=x=#=x=
...........
=x=#=x=#=x=
...#...#...

$ jail
..#..
..#..
#x#x#
.....
.....
#x#x#
..#..
..#..

$ jail
##...###...##
##...###...##
####x###x####
..##.....##..
..x.......x..
..##.....##..
######x######
#####...#####
#####...#####

$ jail
.............
.............
..##=#x#=##..
..#.......#..
..x.*...*.x..
..#.......#..
..##=#x#=##..
.............
.............

$ jail
.............
.#####x#####.
.#.........#.
.#.###=###.#.
.#.#.....#.#.
.x.#.*.*.#.x.
.#.#.....#.#.
.#.###x###.#.
.#.........#.
.#####x#####.
.............

$ jail
...............
...####x####...
..##.......##..
.##.........##.
.#....*.*....#.
.=...........=.
.#....*.*....#.
.##.........##.
..##.......##..
...####x####...
...............

$ jail
..#.........#..
..=...*.*...=..
..#.........#..
..##.......##..
...##.....##...
....##=x=##....
...............

$ jail
...##.......#
..##.........
..#....*.*...
..=..........
..#....*.*....
..##.........
...##.......#
....####x####
.............
.............

$ jail
...#........
...=...*..*.
...#........
...##.......
....###.....
......##=x=#
............
............
............

$ jail
.............
.............
....##x##....
...##...##...
...=..*..=...
...##...##...
....##x##....
.............
.............

$ jail
.....#....
.....=..*.
.....##...
......#=x=#
...........
...........
...........
...........
...........

$ jail
..#.....#..
..=..*..=..
..#.....#..
..###.###..
..###.###..
..###x###..
...........

$ jail
......#.....
......#.....
#####.#.....
....=.=.....
....#.#.....
....x.x.....
....#.#.....
....=.=.....
#####.#.....
......#.....
......#.....

$ jail
.............
.............
.############
.x...........
.#####=#####.
...........#.
.*.*.*.*.*.=.
...........#.
.#####=#####.
.#...........
.#...........

$ jail
.#...........
.#.#####x####
.#.#.........
.#.#..*...*..
.#.#.........
.#.#..*...*..
.#.#.........
.#.##########
.#...........
.#######x####
.............

$ jail
...........
....*.*....
..###=###..
..=.....=..
.*#.???.#*.
..x.???.x..
.*#.???.#*.
..=.....=..
..###=###..
....*.*....
...........

$ ritual
 .............
 ....~~~~~....
..#..~~~~~..#..
.....~~~~~.....
..#....-....#..
...............
..#.0.....0.#..
...............
 .#.0.....0.#.
 .............

$ ritual
...............
.~~~~~~.~~~~~~.
.~#.#.....#.#~.
.~...........~.
.~#.P..0..P.#~.
.~...........~.
....0..-..0....
.~...........~.
.~#.P..0..P.#~.
.~...........~.
.~#.#.....#.#~.
.~~~~~~.~~~~~~.
...............

$ ritual
.............
.###.....###.
.###..0..###.
.###.....###.
.............
..0...-...0..
.............
.###.....###.
.###..0..###.
.###.....###.
.............

$ ritual
............
.0.......0..
............
............
.....-......
............
............
.0.......0..
............

$ ritual
...............
.P.....P.....P.
...............
.P..0.....0..P.
...............
.P..0..-..0..P.
...............
.P..0.....0..P.
...............
.P.....P.....P.
...............

$ damp
..#####..
..~~~~~~.
#######~#
..~###~~.
..~~~~~..
.~~###~..
#~#######
.~~~~~~..
..#####..

$ damp
..###..
..~~~..
####~##
..##~..
.~~~~~.
..###..
..###..

$ damp
.......
.~~~~~.
.~~#~~.
.~###~.
.~~#~~.
.~~~~~.
.......

$ damp
..........
.~~~~~~~~.
.~~~##~~~.
.~~~##~~~.
.~######~.
.~######~.
.~~~##~~~.
.~~~##~~~.
.~~~~~~~~.
..........
